Lab6Part3/cpu_wavedata.vcd
$date
	Wed Mar 09 09:09:45 2022
$end
$version
	Icarus Verilog
$end
$timescale
	100ps
$end
$scope module cpu_tb $end
$var wire 10 ! word_address [9:0] $end
$var wire 128 " readinst [127:0] $end
$var wire 6 # memory_address [5:0] $end
$var wire 32 $ mem_writedata [31:0] $end
$var wire 1 % mem_write $end
$var wire 32 & mem_readdata [31:0] $end
$var wire 1 ' mem_read $end
$var wire 1 ( mem_busywait $end
$var wire 6 ) mem_address [5:0] $end
$var wire 1 * instruction_memory_read $end
$var wire 1 + instruction_memory_busywait $end
$var wire 1 , cache_instruction_busywait $end
$var wire 1 - WRITE $end
$var wire 8 . REGOUT1 [7:0] $end
$var wire 1 / READ $end
$var wire 32 0 PC [31:0] $end
$var wire 32 1 INSTRUCTION [31:0] $end
$var wire 8 2 CACHE_READDATA [7:0] $end
$var wire 1 3 CACHE_BUSYWAIT $end
$var wire 8 4 ALURESULT [7:0] $end
$var reg 1 5 CLK $end
$var reg 1 6 RESET $end
$scope module my_cache $end
$var wire 1 5 clock $end
$var wire 1 6 reset $end
$var wire 32 7 mem_readdata [31:0] $end
$var wire 1 ( mem_busywait $end
$var wire 8 8 cache_writedata [7:0] $end
$var wire 1 - cache_write $end
$var wire 1 / cache_read $end
$var wire 8 9 cache_address [7:0] $end
$var reg 1 3 cache_busywait $end
$var reg 8 : cache_readdata [7:0] $end
$var reg 3 ; cache_slot_tag [2:0] $end
$var reg 37 < current_cache [36:0] $end
$var reg 32 = data_block [31:0] $end
$var reg 1 > dirtybit $end
$var reg 1 ? hit $end
$var reg 3 @ index [2:0] $end
$var reg 6 A mem_address [5:0] $end
$var reg 1 B mem_operation $end
$var reg 1 ' mem_read $end
$var reg 1 % mem_write $end
$var reg 32 C mem_writedata [31:0] $end
$var reg 3 D next_state [2:0] $end
$var reg 2 E offset [1:0] $end
$var reg 3 F state [2:0] $end
$var reg 3 G tag [2:0] $end
$var reg 1 H trigger $end
$var reg 1 I validbit $end
$var reg 1 J write_operation $end
$var integer 32 K i [31:0] $end
$upscope $end
$scope module my_cache_instructions_memory $end
$var wire 1 5 clock $end
$var wire 1 6 reset $end
$var wire 10 L word_address [9:0] $end
$var wire 128 M readinst [127:0] $end
$var wire 1 + instruction_memory_busywait $end
$var reg 1 , cache_instruction_busywait $end
$var reg 3 N cache_slot_tag [2:0] $end
$var reg 1 O cpu_working $end
$var reg 132 P current_cache [131:0] $end
$var reg 1 Q hit $end
$var reg 3 R index [2:0] $end
$var reg 32 S instruction [31:0] $end
$var reg 128 T instruction_block [127:0] $end
$var reg 1 * instruction_memory_read $end
$var reg 1 U mem_operation $end
$var reg 6 V memory_address [5:0] $end
$var reg 2 W offset [1:0] $end
$var reg 3 X tag [2:0] $end
$var reg 1 Y trigger1 $end
$var reg 1 Z trigger2 $end
$var reg 1 [ validbit $end
$var integer 32 \ i [31:0] $end
$upscope $end
$scope module my_data $end
$var wire 6 ] address [5:0] $end
$var wire 1 5 clock $end
$var wire 1 ' read $end
$var wire 1 6 reset $end
$var wire 1 % write $end
$var wire 32 ^ writedata [31:0] $end
$var reg 1 ( busywait $end
$var reg 1 _ readaccess $end
$var reg 32 ` readdata [31:0] $end
$var reg 1 a writeaccess $end
$var integer 32 b i [31:0] $end
$upscope $end
$scope module my_instruct_memory $end
$var wire 6 c address [5:0] $end
$var wire 1 5 clock $end
$var wire 1 * read $end
$var reg 1 + busywait $end
$var reg 1 d readaccess $end
$var reg 128 e readinst [127:0] $end
$upscope $end
$scope module mycpu $end
$var wire 1 3 BUSYWAIT $end
$var wire 1 5 CLK $end
$var wire 32 f INSTRUCTION [31:0] $end
$var wire 8 g READDATA [7:0] $end
$var wire 1 6 RESET $end
$var wire 1 , cache_instruction_busywait $end
$var wire 1 h ZERO $end
$var wire 8 i WRITERESULT [7:0] $end
$var wire 3 j WRITEREG [2:0] $end
$var wire 1 k WRITEENABLE $end
$var wire 1 - WRITE $end
$var wire 8 l VALUE2 [7:0] $end
$var wire 8 m REGOUT2COMPLIMENT [7:0] $end
$var wire 8 n REGOUT2 [7:0] $end
$var wire 8 o REGOUT1 [7:0] $end
$var wire 3 p READREG2 [2:0] $end
$var wire 3 q READREG1 [2:0] $end
$var wire 1 / READ $end
$var wire 1 r PICKWRITE $end
$var wire 32 s PCOUT [31:0] $end
$var wire 32 t PCNEXT [31:0] $end
$var wire 32 u PCBRANCH [31:0] $end
$var wire 8 v OPERAND2 [7:0] $end
$var wire 8 w OPCODE [7:0] $end
$var wire 8 x OFFSET [7:0] $end
$var wire 1 y MUXREGOUT2 $end
$var wire 1 z MUXJUMP $end
$var wire 1 { MUXIMMEDIATE $end
$var wire 1 | MUXBEQ $end
$var wire 8 } IMMEDIATE [7:0] $end
$var wire 8 ~ ALURESULT [7:0] $end
$var wire 3 !" ALUOP [2:0] $end
$var reg 32 "" PC [31:0] $end
$scope module ValueOPERAND2 $end
$var wire 8 #" IMMEDIATE [7:0] $end
$var wire 8 $" VALUE2 [7:0] $end
$var wire 1 { MUXIMMEDIATE $end
$var reg 8 %" OPERAND2 [7:0] $end
$upscope $end
$scope module alu_result $end
$var wire 8 &" DATA2 [7:0] $end
$var wire 1 h ZERO $end
$var wire 3 '" SELECT [2:0] $end
$var wire 8 (" RESULT [7:0] $end
$var wire 8 )" OR_OUT [7:0] $end
$var wire 8 *" FORWARD_OUT [7:0] $end
$var wire 8 +" DATA1 [7:0] $end
$var wire 8 ," AND_OUT [7:0] $end
$var wire 8 -" ADD_OUT [7:0] $end
$scope module ZERO_MUX_result $end
$var wire 8 ." ADD_OUT [7:0] $end
$var reg 1 h ZERO $end
$upscope $end
$scope module add_result $end
$var wire 8 /" DATA2 [7:0] $end
$var wire 8 0" DATA1 [7:0] $end
$var wire 8 1" ADD_OUT [7:0] $end
$upscope $end
$scope module and_result $end
$var wire 8 2" AND_OUT [7:0] $end
$var wire 8 3" DATA2 [7:0] $end
$var wire 8 4" DATA1 [7:0] $end
$upscope $end
$scope module forward_result $end
$var wire 8 5" DATA2 [7:0] $end
$var wire 8 6" FORWARD_OUT [7:0] $end
$upscope $end
$scope module mux_result $end
$var wire 8 7" ADD_OUT [7:0] $end
$var wire 8 8" AND_OUT [7:0] $end
$var wire 8 9" FORWARD_OUT [7:0] $end
$var wire 3 :" SELECT [2:0] $end
$var wire 8 ;" OR_OUT [7:0] $end
$var reg 8 <" RESULT [7:0] $end
$upscope $end
$scope module or_result $end
$var wire 8 =" DATA2 [7:0] $end
$var wire 8 >" OR_OUT [7:0] $end
$var wire 8 ?" DATA1 [7:0] $end
$upscope $end
$upscope $end
$scope module compliment_operation $end
$var wire 8 @" REGOUT2 [7:0] $end
$var reg 8 A" REGOUT2COMPLIMENT [7:0] $end
$upscope $end
$scope module control_signals $end
$var wire 1 3 BUSYWAIT $end
$var wire 8 B" OPCODE [7:0] $end
$var reg 3 C" ALUOP [2:0] $end
$var reg 1 D" MEMREAD $end
$var reg 1 E" MEMWRITE $end
$var reg 1 | MUXBEQ $end
$var reg 1 { MUXIMMEDIATE $end
$var reg 1 z MUXJUMP $end
$var reg 1 y MUXREGOUT2 $end
$var reg 1 r PICKWRITE $end
$var reg 1 / READ $end
$var reg 1 - WRITE $end
$var reg 1 k WRITEENABLE $end
$upscope $end
$scope module pc_adder $end
$var wire 32 F" PC [31:0] $end
$var wire 32 G" PCOUT [31:0] $end
$upscope $end
$scope module pc_final $end
$var wire 1 | MUXBEQ $end
$var wire 1 z MUXJUMP $end
$var wire 32 H" PCOUT [31:0] $end
$var wire 1 h ZERO $end
$var wire 32 I" PCBRANCH [31:0] $end
$var reg 32 J" PCNEXT [31:0] $end
$upscope $end
$scope module pc_jump_branch $end
$var wire 3 K" ALUOP [2:0] $end
$var wire 8 L" OFFSET [7:0] $end
$var wire 32 M" PCOUT [31:0] $end
$var reg 32 N" OFFSET_EXTENDED [31:0] $end
$var reg 32 O" PCBRANCH [31:0] $end
$upscope $end
$scope module register_operation $end
$var wire 1 5 CLK $end
$var wire 3 P" INADDRESS [2:0] $end
$var wire 3 Q" OUT1ADDRESS [2:0] $end
$var wire 3 R" OUT2ADDRESS [2:0] $end
$var wire 1 6 RESET $end
$var wire 1 k WRITE $end
$var wire 8 S" IN [7:0] $end
$var reg 8 T" OUT1 [7:0] $end
$var reg 8 U" OUT2 [7:0] $end
$upscope $end
$scope module sub_or_not $end
$var wire 1 y MUXREGOUT2 $end
$var wire 8 V" REGOUT2 [7:0] $end
$var wire 8 W" REGOUT2COMPLIMENT [7:0] $end
$var reg 8 X" VALUE2 [7:0] $end
$upscope $end
$scope module write_alu_or_mem $end
$var wire 8 Y" ALURESULT [7:0] $end
$var wire 1 r PICKWRITE $end
$var wire 8 Z" READDATA [7:0] $end
$var reg 8 [" WRITERESULT [7:0] $end
$upscope $end
$upscope $end
$upscope $end
$enddefinitions $end
#0
$dumpvars
bx ["
bx Z"
bx Y"
bx X"
bx W"
bx V"
bx U"
bx T"
bx S"
bx R"
bx Q"
bx P"
bx O"
bx N"
bx M"
bx L"
bx K"
bx J"
bx I"
bx H"
bx G"
b11111111111111111111111111111100 F"
xE"
0D"
bx C"
bx B"
bx A"
bx @"
bx ?"
bx >"
bx ="
bx <"
bx ;"
bx :"
bx 9"
bx 8"
bx 7"
bx 6"
bx 5"
bx 4"
bx 3"
bx 2"
bx 1"
bx 0"
bx /"
bx ."
bx -"
bx ,"
bx +"
bx *"
bx )"
bx ("
bx '"
bx &"
bx %"
bx $"
bx #"
b11111111111111111111111111111100 ""
bx !"
bx ~
bx }
x|
x{
xz
xy
bx x
bx w
bx v
bx u
bx t
bx s
xr
bx q
bx p
bx o
bx n
bx m
bx l
xk
bx j
bx i
xh
bx g
bx f
bx e
0d
bx c
bx b
xa
bx `
x_
bx ^
bx ]
bx \
x[
0Z
0Y
bx X
bx W
bx V
0U
bx T
bx S
bx R
xQ
bx P
0O
bx N
bx M
b1111111100 L
bx K
xJ
xI
1H
bx G
bx F
bx E
bx D
bx C
1B
bx A
bx @
x?
x>
bx =
bx <
bx ;
bx :
bx 9
bx 8
bx 7
06
05
bx 4
03
bx 2
bx 1
b11111111111111111111111111111100 0
x/
bx .
x-
x,
0+
x*
bx )
x(
x'
bx &
x%
bx $
bx #
bx "
b1111111100 !
$end
#9
0?
#10
0%
0'
b0 D
b1000 K
b0 F
0a
0_
0(
b100000000 b
b1000 \
b0 t
b0 J"
16
b0 s
b0 G"
b0 H"
b0 M"
#20
06
#40
1O
15
#50
b0 X
b0 R
b0 W
1,
b0 !
b0 L
b0 0
b0 ""
b0 F"
#60
b100 t
b100 J"
1Y
b0 T
b0 N
0[
b0 P
b100 s
b100 G"
b100 H"
b100 M"
#69
1d
1+
1U
b0 #
b0 V
b0 c
1*
0Q
#70
b0 N"
b0 w
b0 B"
b0 q
b0 Q"
b0 p
b0 R"
b0 }
b0 #"
b0 j
b0 P"
b0 x
b0 L"
b0 1
b0 S
b0 f
#80
b0 v
b0 %"
b0 &"
b0 /"
b0 3"
b0 5"
b0 ="
0r
0-
0/
0z
0|
1k
1y
1{
b0 !"
b0 '"
b0 :"
b0 C"
b0 K"
05
#90
b0 G
b0 @
b0 E
b0 i
b0 S"
b0 ["
b0 4
b0 9
b0 ~
b0 ("
b0 <"
b0 Y"
b0 ,"
b0 2"
b0 8"
b0 *"
b0 6"
b0 9"
b100 u
b100 I"
b100 O"
#100
b0 2
b0 :
b0 g
b0 Z"
b0 =
b0 ;
0>
0I
b0 <
#120
15
#150
b0 l
b0 $"
b0 X"
b0 n
b0 @"
b0 U"
b0 V"
b0 .
b0 8
b0 o
b0 +"
b0 0"
b0 4"
b0 ?"
b0 T"
#160
b0 m
b0 A"
b0 W"
b0 )"
b0 ;"
b0 >"
05
#170
1h
b0 -"
b0 ."
b0 1"
b0 7"
#200
15
#240
05
#280
15
#320
05
#360
15
#400
05
#440
15
#480
05
#520
15
bx00011001 "
bx00011001 M
bx00011001 e
#560
05
#600
15
#640
05
#680
15
#720
05
#760
15
#800
05
#840
15
#880
05
#920
15
bx0000000000011001 "
bx0000000000011001 M
bx0000000000011001 e
#960
05
#1000
15
#1040
05
#1080
15
#1120
05
#1160
15
#1200
05
#1240
15
#1280
05
#1320
15
bx000001000000000000011001 "
bx000001000000000000011001 M
bx000001000000000000011001 e
#1360
05
#1400
15
#1440
05
#1480
15
#1520
05
#1560
15
#1600
05
#1640
15
#1680
05
#1720
15
bx00000000000001000000000000011001 "
bx00000000000001000000000000011001 M
bx00000000000001000000000000011001 e
#1760
05
#1800
15
#1840
05
#1880
15
#1920
05
#1960
15
#2000
05
#2040
15
#2080
05
#2120
15
bx0010001100000000000001000000000000011001 "
bx0010001100000000000001000000000000011001 M
bx0010001100000000000001000000000000011001 e
#2160
05
#2200
15
#2240
05
#2280
15
#2320
05
#2360
15
#2400
05
#2440
15
#2480
05
#2520
15
bx000000000010001100000000000001000000000000011001 "
bx000000000010001100000000000001000000000000011001 M
bx000000000010001100000000000001000000000000011001 e
#2560
05
#2600
15
#2640
05
#2680
15
#2720
05
#2760
15
#2800
05
#2840
15
#2880
05
#2920
15
bx00000101000000000010001100000000000001000000000000011001 "
bx00000101000000000010001100000000000001000000000000011001 M
bx00000101000000000010001100000000000001000000000000011001 e
#2960
05
#3000
15
#3040
05
#3080
15
#3120
05
#3160
15
#3200
05
#3240
15
#3280
05
#3320
15
bx0000000000000101000000000010001100000000000001000000000000011001 "
bx0000000000000101000000000010001100000000000001000000000000011001 M
bx0000000000000101000000000010001100000000000001000000000000011001 e
#3360
05
#3400
15
#3440
05
#3480
15
#3520
05
#3560
15
#3600
05
#3640
15
#3680
05
#3720
15
bx000001010000000000000101000000000010001100000000000001000000000000011001 "
bx000001010000000000000101000000000010001100000000000001000000000000011001 M
bx000001010000000000000101000000000010001100000000000001000000000000011001 e
#3760
05
#3800
15
#3840
05
#3880
15
#3920
05
#3960
15
#4000
05
#4040
15
#4080
05
#4120
15
bx00000100000001010000000000000101000000000010001100000000000001000000000000011001 "
bx00000100000001010000000000000101000000000010001100000000000001000000000000011001 M
bx00000100000001010000000000000101000000000010001100000000000001000000000000011001 e
#4160
05
#4200
15
#4240
05
#4280
15
#4320
05
#4360
15
#4400
05
#4440
15
#4480
05
#4520
15
bx0000011000000100000001010000000000000101000000000010001100000000000001000000000000011001 "
bx0000011000000100000001010000000000000101000000000010001100000000000001000000000000011001 M
bx0000011000000100000001010000000000000101000000000010001100000000000001000000000000011001 e
#4560
05
#4600
15
#4640
05
#4680
15
#4720
05
#4760
15
#4800
05
#4840
15
#4880
05
#4920
15
bx000000100000011000000100000001010000000000000101000000000010001100000000000001000000000000011001 "
bx000000100000011000000100000001010000000000000101000000000010001100000000000001000000000000011001 M
bx000000100000011000000100000001010000000000000101000000000010001100000000000001000000000000011001 e
#4960
05
#5000
15
#5040
05
#5080
15
#5120
05
#5160
15
#5200
05
#5240
15
#5280
05
#5320
15
bx01011010000000100000011000000100000001010000000000000101000000000010001100000000000001000000000000011001 "
bx01011010000000100000011000000100000001010000000000000101000000000010001100000000000001000000000000011001 M
bx01011010000000100000011000000100000001010000000000000101000000000010001100000000000001000000000000011001 e
#5360
05
#5400
15
#5440
05
#5480
15
#5520
05
#5560
15
#5600
05
#5640
15
#5680
05
#5720
15
bx0000000001011010000000100000011000000100000001010000000000000101000000000010001100000000000001000000000000011001 "
bx0000000001011010000000100000011000000100000001010000000000000101000000000010001100000000000001000000000000011001 M
bx0000000001011010000000100000011000000100000001010000000000000101000000000010001100000000000001000000000000011001 e
#5760
05
#5800
15
#5840
05
#5880
15
#5920
05
#5960
15
#6000
05
#6040
15
#6080
05
#6120
15
bx000000010000000001011010000000100000011000000100000001010000000000000101000000000010001100000000000001000000000000011001 "
bx000000010000000001011010000000100000011000000100000001010000000000000101000000000010001100000000000001000000000000011001 M
bx000000010000000001011010000000100000011000000100000001010000000000000101000000000010001100000000000001000000000000011001 e
#6160
05
#6200
15
#6240
05
#6280
15
#6320
05
#6360
15
#6400
05
#6440
15
#6480
05
#6520
0*
15
0d
0+
b10000000001011010000000100000011000000100000001010000000000000101000000000010001100000000000001000000000000011001 "
b10000000001011010000000100000011000000100000001010000000000000101000000000010001100000000000001000000000000011001 M
b10000000001011010000000100000011000000100000001010000000000000101000000000010001100000000000001000000000000011001 e
#6530
1Z
0U
#6540
0Y
b10000000001011010000000100000011000000100000001010000000000000101000000000010001100000000000001000000000000011001 T
1[
b100000000000000000010000000001011010000000100000011000000100000001010000000000000101000000000010001100000000000001000000000000011001 P
#6549
0,
1Q
#6550
b11001 v
b11001 %"
b11001 &"
b11001 /"
b11001 3"
b11001 5"
b11001 ="
b10000 N"
b1 p
b1 R"
b11001 }
b11001 #"
b100 j
b100 P"
b100 x
b100 L"
b1000000000000011001 1
b1000000000000011001 S
b1000000000000011001 f
#6560
b110 @
b1 E
b11001 i
b11001 S"
b11001 ["
b11001 4
b11001 9
b11001 ~
b11001 ("
b11001 <"
b11001 Y"
b11001 )"
b11001 ;"
b11001 >"
b11001 *"
b11001 6"
b11001 9"
05
#6570
bx l
bx $"
bx X"
0h
bx n
bx @"
bx U"
bx V"
b11001 -"
b11001 ."
b11001 1"
b11001 7"
b10100 u
b10100 I"
b10100 O"
#6580
bx m
bx A"
bx W"
#6600
15
#6610
b1 W
1,
b100 !
b100 L
b100 0
b100 ""
b100 F"
#6620
b1000 t
b1000 J"
1Y
b1000 s
b1000 G"
b1000 H"
b1000 M"
#6629
0,
#6630
b100011 v
b100011 %"
b100011 &"
b100011 /"
b100011 3"
b100011 5"
b100011 ="
b10100 N"
b11 p
b11 R"
b100011 }
b100011 #"
b101 j
b101 P"
b101 x
b101 L"
b1010000000000100011 1
b1010000000000100011 S
b1010000000000100011 f
#6640
b1 G
b0 @
b11 E
b100011 i
b100011 S"
b100011 ["
b100011 4
b100011 9
b100011 ~
b100011 ("
b100011 <"
b100011 Y"
b100011 )"
b100011 ;"
b100011 >"
b100011 *"
b100011 6"
b100011 9"
05
#6650
b100011 -"
b100011 ."
b100011 1"
b100011 7"
b11100 u
b11100 I"
b11100 O"
#6680
15
#6690
b10 W
1,
b1000 !
b1000 L
b1000 0
b1000 ""
b1000 F"
#6700
b1100 t
b1100 J"
0Y
b1100 s
b1100 G"
b1100 H"
b1100 M"
#6709
0,
#6710
b101 v
b101 %"
b101 &"
b101 /"
b101 3"
b101 5"
b101 ="
b11000 N"
b10 w
b10 B"
b100 q
b100 Q"
b101 p
b101 R"
b101 }
b101 #"
b110 j
b110 P"
b110 x
b110 L"
b10000001100000010000000101 1
b10000001100000010000000101 S
b10000001100000010000000101 f
#6720
bx v
bx %"
bx &"
bx /"
bx 3"
bx 5"
bx ="
b101 )"
b101 ;"
b101 >"
0{
b1 !"
b1 '"
b1 :"
b1 C"
b1 K"
b101 *"
b101 6"
b101 9"
05
#6730
b100011 v
b100011 %"
b100011 &"
b100011 /"
b100011 3"
b100011 5"
b100011 ="
b100011 l
b100011 $"
b100011 X"
bx )"
bx ;"
bx >"
bx *"
bx 6"
bx 9"
b100011 n
b100011 @"
b100011 U"
b100011 V"
b11001 .
b11001 8
b11001 o
b11001 +"
b11001 0"
b11001 4"
b11001 ?"
b11001 T"
b100100 u
b100100 I"
b100100 O"
#6740
b100011 *"
b100011 6"
b100011 9"
b11011101 m
b11011101 A"
b11011101 W"
b111011 )"
b111011 ;"
b111011 >"
b1 ,"
b1 2"
b1 8"
#6750
b111 @
b0 E
b111100 i
b111100 S"
b111100 ["
b111100 4
b111100 9
b111100 ~
b111100 ("
b111100 <"
b111100 Y"
b111100 -"
b111100 ."
b111100 1"
b111100 7"
#6760
15
#6770
b11 W
1,
b1100 !
b1100 L
b1100 0
b1100 ""
b1100 F"
#6780
b10000 t
b10000 J"
1Y
b10000 s
b10000 G"
b10000 H"
b10000 M"
#6789
0,
#6790
b100 N"
b0 w
b0 B"
b0 q
b0 Q"
b10 p
b10 R"
b1011010 }
b1011010 #"
b1 j
b1 P"
b1 x
b1 L"
b10000000001011010 1
b10000000001011010 S
b10000000001011010 f
#6800
b0 @
b11 E
b100011 i
b100011 S"
b100011 ["
b1011010 v
b1011010 %"
b1011010 &"
b1011010 /"
b1011010 3"
b1011010 5"
b1011010 ="
b100011 4
b100011 9
b100011 ~
b100011 ("
b100011 <"
b100011 Y"
1{
b0 !"
b0 '"
b0 :"
b0 C"
b0 K"
05
#6810
b10 G
b110 @
b10 E
b1011010 i
b1011010 S"
b1011010 ["
b1011010 4
b1011010 9
b1011010 ~
b1011010 ("
b1011010 <"
b1011010 Y"
bx l
bx $"
bx X"
b11000 ,"
b11000 2"
b11000 8"
b1011011 )"
b1011011 ;"
b1011011 >"
b1011010 *"
b1011010 6"
b1011010 9"
bx n
bx @"
bx U"
bx V"
b0 .
b0 8
b0 o
b0 +"
b0 0"
b0 4"
b0 ?"
b0 T"
b10100 u
b10100 I"
b10100 O"
#6820
bx m
bx A"
bx W"
b1011010 )"
b1011010 ;"
b1011010 >"
b0 ,"
b0 2"
b0 8"
#6830
b1011010 -"
b1011010 ."
b1011010 1"
b1011010 7"
#6840
15
#6850
b1 R
b0 W
1,
b10000 !
b10000 L
b10000 0
b10000 ""
b10000 F"
#6860
b10100 t
b10100 J"
0Y
b0 T
0[
b0 P
b10100 s
b10100 G"
b10100 H"
b10100 M"
#6869
1d
1+
1U
b1 #
b1 V
b1 c
1*
0Q
#6870
b0 v
b0 %"
b0 &"
b0 /"
b0 3"
b0 5"
b0 ="
b0 N"
b0 p
b0 R"
b0 }
b0 #"
b0 j
b0 P"
b0 x
b0 L"
b0 1
b0 S
b0 f
#6880
b0 G
b0 @
b0 E
b0 i
b0 S"
b0 ["
b0 4
b0 9
b0 ~
b0 ("
b0 <"
b0 Y"
b0 )"
b0 ;"
b0 >"
b0 *"
b0 6"
b0 9"
05
#6890
b0 l
b0 $"
b0 X"
1h
b0 n
b0 @"
b0 U"
b0 V"
b0 -"
b0 ."
b0 1"
b0 7"
#6900
b0 m
b0 A"
b0 W"
#6920
15
#6960
05
#7000
15
#7040
05
#7080
15
#7120
05
#7160
15
#7200
05
#7240
15
#7280
05
#7320
15
b10000000001011010000000100000011000000100000001010000000000000101000000000010001100000000000001000000000000000100 "
b10000000001011010000000100000011000000100000001010000000000000101000000000010001100000000000001000000000000000100 M
b10000000001011010000000100000011000000100000001010000000000000101000000000010001100000000000001000000000000000100 e
#7360
05
#7400
15
#7440
05
#7480
15
#7520
05
#7560
15
#7600
05
#7640
15
#7680
05
#7720
15
b10000000001011010000000100000011000000100000001010000000000000101000000000010001100000000000001000000000100000100 "
b10000000001011010000000100000011000000100000001010000000000000101000000000010001100000000000001000000000100000100 M
b10000000001011010000000100000011000000100000001010000000000000101000000000010001100000000000001000000000100000100 e
#7760
05
#7800
15
#7840
05
#7880
15
#7920
05
#7960
15
#8000
05
#8040
15
#8080
05
#8120
15
b10000000001011010000000100000011000000100000001010000000000000101000000000010001100000000000000010000000100000100 "
b10000000001011010000000100000011000000100000001010000000000000101000000000010001100000000000000010000000100000100 M
b10000000001011010000000100000011000000100000001010000000000000101000000000010001100000000000000010000000100000100 e
#8160
05
#8200
15
#8240
05
#8280
15
#8320
05
#8360
15
#8400
05
#8440
15
#8480
05
#8520
15
b10000000001011010000000100000011000000100000001010000000000000101000000000010001100000011000000010000000100000100 "
b10000000001011010000000100000011000000100000001010000000000000101000000000010001100000011000000010000000100000100 M
b10000000001011010000000100000011000000100000001010000000000000101000000000010001100000011000000010000000100000100 e
#8560
05
#8600
15
#8640
05
#8680
15
#8720
05
#8760
15
#8800
05
#8840
15
#8880
05
#8920
15
b10000000001011010000000100000011000000100000001010000000000000101000000000000000000000011000000010000000100000100 "
b10000000001011010000000100000011000000100000001010000000000000101000000000000000000000011000000010000000100000100 M
b10000000001011010000000100000011000000100000001010000000000000101000000000000000000000011000000010000000100000100 e
#8960
05
#9000
15
#9040
05
#9080
15
#9120
05
#9160
15
#9200
05
#9240
15
#9280
05
#9320
15
#9360
05
#9400
15
#9440
05
#9480
15
#9520
05
#9560
15
#9600
05
#9640
15
#9680
05
#9720
15
b10000000001011010000000100000011000000100000001010000000011111110000000000000000000000011000000010000000100000100 "
b10000000001011010000000100000011000000100000001010000000011111110000000000000000000000011000000010000000100000100 M
b10000000001011010000000100000011000000100000001010000000011111110000000000000000000000011000000010000000100000100 e
#9760
05
#9800
15
#9840
05
#9880
15
#9920
05
#9960
15
#10000
05
#10040
15
#10080
05
#10120
15
b10000000001011010000000100000011000000100000001010000011011111110000000000000000000000011000000010000000100000100 "
b10000000001011010000000100000011000000100000001010000011011111110000000000000000000000011000000010000000100000100 M
b10000000001011010000000100000011000000100000001010000011011111110000000000000000000000011000000010000000100000100 e
#10160
05
#10200
15
#10240
05
#10280
15
#10320
05
#10360
15
#10400
05
#10440
15
#10480
05
#10520
15
b10000000001011010000000100000011000000100xxxxxxxx0000011011111110000000000000000000000011000000010000000100000100 "
b10000000001011010000000100000011000000100xxxxxxxx0000011011111110000000000000000000000011000000010000000100000100 M
b10000000001011010000000100000011000000100xxxxxxxx0000011011111110000000000000000000000011000000010000000100000100 e
#10560
05
#10600
15
#10640
05
#10680
15
#10720
05
#10760
15
#10800
05
#10840
15
#10880
05
#10920
15
b100000000010110100000001000000110xxxxxxxxxxxxxxxx0000011011111110000000000000000000000011000000010000000100000100 "
b100000000010110100000001000000110xxxxxxxxxxxxxxxx0000011011111110000000000000000000000011000000010000000100000100 M
b100000000010110100000001000000110xxxxxxxxxxxxxxxx0000011011111110000000000000000000000011000000010000000100000100 e
#10960
05
#11000
15
#11040
05
#11080
15
#11120
05
#11160
15
#11200
05
#11240
15
#11280
05
#11320
15
b1000000000101101000000010xxxxxxxxxxxxxxxxxxxxxxxx0000011011111110000000000000000000000011000000010000000100000100 "
b1000000000101101000000010xxxxxxxxxxxxxxxxxxxxxxxx0000011011111110000000000000000000000011000000010000000100000100 M
b1000000000101101000000010xxxxxxxxxxxxxxxxxxxxxxxx0000011011111110000000000000000000000011000000010000000100000100 e
#11360
05
#11400
15
#11440
05
#11480
15
#11520
05
#11560
15
#11600
05
#11640
15
#11680
05
#11720
15
b10000000001011010xxxxxxxxxxxxxxxxxxxxxxxxxxxxxxxx0000011011111110000000000000000000000011000000010000000100000100 "
b10000000001011010xxxxxxxxxxxxxxxxxxxxxxxxxxxxxxxx0000011011111110000000000000000000000011000000010000000100000100 M
b10000000001011010xxxxxxxxxxxxxxxxxxxxxxxxxxxxxxxx0000011011111110000000000000000000000011000000010000000100000100 e
#11760
05
#11800
15
#11840
05
#11880
15
#11920
05
#11960
15
#12000
05
#12040
15
#12080
05
#12120
15
b100000000xxxxxxxxxxxxxxxxxxxxxxxxxxxxxxxxxxxxxxxx0000011011111110000000000000000000000011000000010000000100000100 "
b100000000xxxxxxxxxxxxxxxxxxxxxxxxxxxxxxxxxxxxxxxx0000011011111110000000000000000000000011000000010000000100000100 M
b100000000xxxxxxxxxxxxxxxxxxxxxxxxxxxxxxxxxxxxxxxx0000011011111110000000000000000000000011000000010000000100000100 e
#12160
05
#12200
15
#12240
05
#12280
15
#12320
05
#12360
15
#12400
05
#12440
15
#12480
05
#12520
15
b1xxxxxxxxxxxxxxxxxxxxxxxxxxxxxxxxxxxxxxxxxxxxxxxx0000011011111110000000000000000000000011000000010000000100000100 "
b1xxxxxxxxxxxxxxxxxxxxxxxxxxxxxxxxxxxxxxxxxxxxxxxx0000011011111110000000000000000000000011000000010000000100000100 M
b1xxxxxxxxxxxxxxxxxxxxxxxxxxxxxxxxxxxxxxxxxxxxxxxx0000011011111110000000000000000000000011000000010000000100000100 e
#12560
05
#12600
15
#12640
05
#12680
15
#12720
05
#12760
15
#12800
05
#12840
15
#12880
05
#12920
15
b0xxxxxxxxxxxxxxxxxxxxxxxxxxxxxxxxxxxxxxxxxxxxxxxxxxxxxxxx0000011011111110000000000000000000000011000000010000000100000100 "
b0xxxxxxxxxxxxxxxxxxxxxxxxxxxxxxxxxxxxxxxxxxxxxxxxxxxxxxxx0000011011111110000000000000000000000011000000010000000100000100 M
b0xxxxxxxxxxxxxxxxxxxxxxxxxxxxxxxxxxxxxxxxxxxxxxxxxxxxxxxx0000011011111110000000000000000000000011000000010000000100000100 e
#12960
05
#13000
15
#13040
05
#13080
15
#13120
05
#13160
15
#13200
05
#13240
15
#13280
05
#13320
0*
15
0d
0+
bx0000011011111110000000000000000000000011000000010000000100000100 "
bx0000011011111110000000000000000000000011000000010000000100000100 M
bx0000011011111110000000000000000000000011000000010000000100000100 e
#13330
0Z
0U
#13340
1Y
bx0000011011111110000000000000000000000011000000010000000100000100 T
1[
b1000xxxxxxxxxxxxxxxxxxxxxxxxxxxxxxxxxxxxxxxxxxxxxxxxxxxxxxxxxxxxxxxx0000011011111110000000000000000000000011000000010000000100000100 P
#13349
0,
1Q
#13350
b100 v
b100 %"
b100 &"
b100 /"
b100 3"
b100 5"
b100 ="
b100 N"
b11 w
b11 B"
b1 q
b1 Q"
b100 p
b100 R"
b100 }
b100 #"
b1 j
b1 P"
b1 x
b1 L"
b11000000010000000100000100 1
b11000000010000000100000100 S
b11000000010000000100000100 f
#13360
b0 v
b0 %"
b0 &"
b0 /"
b0 3"
b0 5"
b0 ="
b100 )"
b100 ;"
b100 >"
0y
0{
b1 !"
b1 '"
b1 :"
b1 C"
b1 K"
b100 *"
b100 6"
b100 9"
05
#13370
b0 )"
b0 ;"
b0 >"
b0 *"
b0 6"
b0 9"
b11001 n
b11001 @"
b11001 U"
b11001 V"
b1011010 .
b1011010 8
b1011010 o
b1011010 +"
b1011010 0"
b1011010 4"
b1011010 ?"
b1011010 T"
b11000 u
b11000 I"
b11000 O"
